// Jest Snapshot v1, https://goo.gl/fbAQLP

exports[`app snapShot 1`] = `
<div>
  <div>
    <h1>
      Hello World.
    </h1>
    <p>
      App Test Page.
    </p>
  </div>
  <div>
    <input
      onClick={[Function]}
      type="button"
      value={1}
    />
  </div>
  <div>
    <input
      onClick={[Function]}
      type="button"
      value="prop is XXX!!, num is 1"
    />
  </div>
</div>
`;
